Id,Name
a0n2x000000U46kAAC,In Process at Our Firm
a0n2x000000U46lAAC,Not Started
a0n2x000000U46mAAC,Completed
a0n2x000000U46xAAC,Not Started
a0n2x000000U46yAAC,Waiting on Client
a0n2x000000U470AAC,Creating Plan
a0n2x000000U472AAC,Not Started
a0n2x000000U476AAC,In Process at Our Firm
a0n2x000000U477AAC,Not Started
a0n2x000000U478AAC,Meeting Setup
a0n2x000000U47DAAS,Assessing Prospect
a0n2x000000U47OAAS,Good Fit Advancement
a0n2x000000U47WAAS,In Process at Our Firm
a0n2x000000U47XAAS,Completed
a0n2x000000U47bAAC,Post Meeting Follow-up
a0n2x000001R8mIAAS,In Progress
