Id,Name,practifi__Code__c,practifi__Group_Code__c,practifi__Group__c,practifi__Order__c,practifi__Related_To__c,practifi__Short_Name__c
a09B0000005uUkYIAU,Investment Management,SERVTYPINV,Asse,Asset-Based,1,Service Type,InvMgmt
a09B0000005uUkZIAU,Financial Plan,SERVTYPPLAN,,,2,Service Type,FinPln
